{
    "count": 108,
    "next": "https://hub.docker.com/v2/repositories/library/?page=2&page_size=10",
    "previous": null,
    "results": [{
        "user": "library",
        "name": "nginx",
        "namespace": "library",
        "status": 1,
        "description": "Official build of Nginx.",
        "is_private": false,
        "is_automated": false,
        "can_edit": false,
        "star_count": 3086,
        "pull_count": 209774811,
        "last_updated": "2016-05-24T23:08:09.477673Z"
    }, {
        "user": "library",
        "name": "busybox",
        "namespace": "library",
        "status": 1,
        "description": "Busybox base image.",
        "is_private": false,
        "is_automated": false,
        "can_edit": false,
        "star_count": 677,
        "pull_count": 105504228,
        "last_updated": "2016-05-31T16:45:09.033018Z"
    }, {
        "user": "library",
        "name": "ubuntu",
        "namespace": "library",
        "status": 1,
        "description": "Ubuntu is a Debian-based Linux operating system based on free software.",
        "is_private": false,
        "is_automated": false,
        "can_edit": false,
        "star_count": 4008,
        "pull_count": 59775204,
        "last_updated": "2016-05-27T14:29:23.636013Z"
    }, {
        "user": "library",
        "name": "registry",
        "namespace": "library",
        "status": 1,
        "description": "Containerized docker registry",
        "is_private": false,
        "is_automated": false,
        "can_edit": false,
        "star_count": 853,
        "pull_count": 33389612,
        "last_updated": "2016-05-18T21:41:20.213769Z"
    }, {
        "user": "library",
        "name": "swarm",
        "namespace": "library",
        "status": 1,
        "description": "Swarm: a Docker-native clustering system.",
        "is_private": false,
        "is_automated": false,
        "can_edit": false,
        "star_count": 350,
        "pull_count": 32314758,
        "last_updated": "2016-05-27T18:10:51.743288Z"
    }, {
        "user": "library",
        "name": "redis",
        "namespace": "library",
        "status": 1,
        "description": "Redis is an open source key-value store that functions as a data structure server.",
        "is_private": false,
        "is_automated": false,
        "can_edit": false,
        "star_count": 2189,
        "pull_count": 30096752,
        "last_updated": "2016-05-18T00:11:07.762739Z"
    }, {
        "user": "library",
        "name": "mongo",
        "namespace": "library",
        "status": 1,
        "description": "MongoDB document databases provide high availability and easy scalability.",
        "is_private": false,
        "is_automated": false,
        "can_edit": false,
        "star_count": 1888,
        "pull_count": 20165183,
        "last_updated": "2016-05-17T19:23:52.820274Z"
    }, {
        "user": "library",
        "name": "mysql",
        "namespace": "library",
        "status": 1,
        "description": "MySQL is a widely used, open-source relational database management system (RDBMS).",
        "is_private": false,
        "is_automated": false,
        "can_edit": false,
        "star_count": 2426,
        "pull_count": 18737400,
        "last_updated": "2016-05-17T19:27:35.307086Z"
    }, {
        "user": "library",
        "name": "node",
        "namespace": "library",
        "status": 1,
        "description": "Node.js is a JavaScript-based platform for server-side and networking applications.",
        "is_private": false,
        "is_automated": false,
        "can_edit": false,
        "star_count": 2259,
        "pull_count": 12597637,
        "last_updated": "2016-05-24T21:26:51.856385Z"
    }, {
        "user": "library",
        "name": "postgres",
        "namespace": "library",
        "status": 1,
        "description": "The PostgreSQL object-relational database system provides reliability and data integrity.",
        "is_private": false,
        "is_automated": false,
        "can_edit": false,
        "star_count": 2113,
        "pull_count": 11403326,
        "last_updated": "2016-05-24T22:20:46.831510Z"
    }]
}
